<?xml version="1.0"?>
<svg width="625" height="625" viewBox="0 0 625 625"
     xmlns="http://www.w3.org/2000/svg" version="1.1">
  <text x="62" y="400.0"
        font-size="50" fill="black" >
    A
    <tspan baseline-shift="super" font-size="50">
      0.3
    </tspan>
  </text>
  <text x="350.0" y="125"
        font-size="50" fill="black" >
    A
  </text>
  <line x1="500" y1="500" x2="250" y2="250"
        stroke="red" stroke-width="4"
        stroke-opacity="4"  />
  <line x1="500" y1="500" x2="250" y2="250"
        stroke="blue" stroke-width="4"
        stroke-opacity="4"  />
  <pattern id="circle_pattern" x="-24" y="-24" width="250" height="250" 
           patternUnits="userSpaceOnUse">
    <circle cx="24" cy="24" r="12"
            fill="whitesmoke" stroke="whitesmoke" stroke-width="1"  />
  </pattern>
  <rect x="150" y="150" height="525" width="525" 
        style="fill:url(#circle_pattern);" />
  <circle cx="250" cy="250" r="12"
            fill="green" stroke="green" stroke-width="1"  />
  <circle cx="500" cy="500" r="12"
            fill="green" stroke="green" stroke-width="1"  />
</svg>
